El VAR dentro del fútbol
…
Debido a que el interés de este análisis es la comparación de la
temporada pre-VAR vs post-VAR a nivel jornada (GW) y temporada, las
métricas antes mencionadas se medirán/agruparán a nivel equipo (en caso
de no contar con info del equipo visitante, se tomará en cuenta siempre
el equipo local). Si no se tiene información del nombre del equipo local
entonces se le asignará el valor del porcentaje de posesión igual al
promedio obtenido en la jornada, temporada, o cual sea la variable de
agrupación en el análisis. Antes de la agrupación a nivel equipo o
jornada, los cálculos se harán a nivel jugador para después hacer la
variable agregada.

poss_season_gw

## # A tibble: 228 × 3
## # Groups:   season [6]
##    season    GW avg_poss
##    <chr>  <dbl>    <dbl>
##  1 16/17      1     47.7
##  2 16/17      2     47.6
##  3 16/17      3     47.5
##  4 16/17      4     47.6
##  5 16/17      5     47.6
##  6 16/17      6     47.6
##  7 16/17      7     47.6
##  8 16/17      8     47.7
##  9 16/17      9     47.7
## 10 16/17     10     47.7
## # … with 218 more rows
…
